HUST-cpu.sim/sim_1/behav/xsim/simulate.log
Vivado Simulator 2020.2
Time resolution is 1 ps
WE:0, WR:00, RDin:xxxxxxxx
IR:         0
R1:xX, EX_WR:00, EX_RegWrite:0, ReadR1:x, EX Conflict R1: 0
R2:0X, EX_WR:00, EX_RegWrite:0, ReadR2:x, EX Conflict R2: 0
R1:xX, MEM_WR:00, MEM_RegWrite:0, ReadR1:x, MEM Conflict R1: 0
R2:0X, MEM_WR:00, MEM_RegWrite:0, ReadR2:x, MEM Conflict R2: 0
RDin: from ALU
PC:next instruction
LEDInfo:xxxxxxxx
IR:2097152275
R1:00, EX_WR:00, EX_RegWrite:0, ReadR1:0, EX Conflict R1: 0
R2:10, EX_WR:00, EX_RegWrite:0, ReadR2:0, EX Conflict R2: 0
R1:00, MEM_WR:00, MEM_RegWrite:0, ReadR1:0, MEM Conflict R1: 0
R2:10, MEM_WR:00, MEM_RegWrite:0, ReadR2:0, MEM Conflict R2: 0
RDin: from ALU
WE:0, WR:00, RDin:00000000
PC:next instruction
LEDInfo:xxxxxxxx
IR:   1049619
R1:00, EX_WR:02, EX_RegWrite:1, ReadR1:1, EX Conflict R1: 0
R2:01, EX_WR:02, EX_RegWrite:1, ReadR2:0, EX Conflict R2: 0
R1:00, MEM_WR:00, MEM_RegWrite:0, ReadR1:1, MEM Conflict R1: 0
R2:01, MEM_WR:00, MEM_RegWrite:0, ReadR2:0, MEM Conflict R2: 0
WE:0, WR:00, RDin:00000000
PC:next instruction
LEDInfo:xxxxxxxx
IR:  32774547
R1:08, EX_WR:08, EX_RegWrite:1, ReadR1:1, EX Conflict R1: 1
R2:1f, EX_WR:08, EX_RegWrite:1, ReadR2:0, EX Conflict R2: 0
R1:08, MEM_WR:02, MEM_RegWrite:1, ReadR1:1, MEM Conflict R1: 0
R2:1f, MEM_WR:02, MEM_RegWrite:1, ReadR2:0, MEM Conflict R2: 0
WE:0, WR:00, RDin:00000000
PC:next instruction
LEDInfo:xxxxxxxx
IR:1106893203
R1:13, EX_WR:13, EX_RegWrite:1, ReadR1:1, EX Conflict R1: 1
R2:1f, EX_WR:13, EX_RegWrite:1, ReadR2:0, EX Conflict R2: 0
R1:13, MEM_WR:08, MEM_RegWrite:1, ReadR1:1, MEM Conflict R1: 0
R2:1f, MEM_WR:08, MEM_RegWrite:1, ReadR2:0, MEM Conflict R2: 0
RDin: from ALU
WE:1, WR:02, RDin:000007d0
PC:next instruction
LEDInfo:xxxxxxxx
IR:      1075
R1:00, EX_WR:13, EX_RegWrite:1, ReadR1:1, EX Conflict R1: 1
R2:00, EX_WR:13, EX_RegWrite:1, ReadR2:0, EX Conflict R2: 0
R1:00, MEM_WR:13, MEM_RegWrite:1, ReadR1:1, MEM Conflict R1: 0
R2:00, MEM_WR:13, MEM_RegWrite:1, ReadR2:0, MEM Conflict R2: 0
RDin: from ALU
WE:1, WR:08, RDin:00000001
PC:next instruction
LEDInfo:xxxxxxxx
IR:  12585235
R1:00, EX_WR:08, EX_RegWrite:1, ReadR1:1, EX Conflict R1: 0
R2:0c, EX_WR:08, EX_RegWrite:1, ReadR2:1, EX Conflict R2: 0
R1:00, MEM_WR:13, MEM_RegWrite:1, ReadR1:1, MEM Conflict R1: 0
R2:0c, MEM_WR:13, MEM_RegWrite:1, ReadR2:1, MEM Conflict R2: 0
RDin: from ALU
WE:1, WR:13, RDin:X0000000
PC:next instruction
LEDInfo:xxxxxxxx
IR:   8391443
R1:00, EX_WR:12, EX_RegWrite:1, ReadR1:1, EX Conflict R1: 0
R2:08, EX_WR:12, EX_RegWrite:1, ReadR2:0, EX Conflict R2: 0
R1:00, MEM_WR:08, MEM_RegWrite:1, ReadR1:1, MEM Conflict R1: 0
R2:08, MEM_WR:08, MEM_RegWrite:1, ReadR2:0, MEM Conflict R2: 1
RDin: from ALU
WE:1, WR:13, RDin:00000000
PC:next instruction
LEDInfo:xxxxxxxx
IR:   1311763
R1:08, EX_WR:16, EX_RegWrite:1, ReadR1:1, EX Conflict R1: 0
R2:01, EX_WR:16, EX_RegWrite:1, ReadR2:0, EX Conflict R2: 0
R1:08, MEM_WR:12, MEM_RegWrite:1, ReadR1:1, MEM Conflict R1: 0
R2:01, MEM_WR:12, MEM_RegWrite:1, ReadR2:0, MEM Conflict R2: 0
RDin: from ALU
WE:1, WR:08, RDin:00000000
PC:next instruction
LEDInfo:xxxxxxxx
IR:  16020499
R1:08, EX_WR:08, EX_RegWrite:1, ReadR1:1, EX Conflict R1: 1
R2:0f, EX_WR:08, EX_RegWrite:1, ReadR2:0, EX Conflict R2: 0
R1:08, MEM_WR:16, MEM_RegWrite:1, ReadR1:1, MEM Conflict R1: 0
R2:0f, MEM_WR:16, MEM_RegWrite:1, ReadR2:0, MEM Conflict R2: 0
RDin: from ALU
WE:1, WR:12, RDin:0000000c
PC:next instruction
LEDInfo:xxxxxxxx
IR:   8389267
R1:00, EX_WR:08, EX_RegWrite:1, ReadR1:1, EX Conflict R1: 1
R2:08, EX_WR:08, EX_RegWrite:1, ReadR2:0, EX Conflict R2: 0
R1:00, MEM_WR:08, MEM_RegWrite:1, ReadR1:1, MEM Conflict R1: 0
R2:08, MEM_WR:08, MEM_RegWrite:1, ReadR2:0, MEM Conflict R2: 1
RDin: from ALU
WE:1, WR:16, RDin:00000008
PC:next instruction
LEDInfo:xxxxxxxx
IR:   1049363
R1:00, EX_WR:05, EX_RegWrite:1, ReadR1:1, EX Conflict R1: 0
R2:01, EX_WR:05, EX_RegWrite:1, ReadR2:0, EX Conflict R2: 0
R1:00, MEM_WR:08, MEM_RegWrite:1, ReadR1:1, MEM Conflict R1: 0
R2:01, MEM_WR:08, MEM_RegWrite:1, ReadR2:0, MEM Conflict R2: 1
RDin: from ALU
WE:1, WR:08, RDin:00000001
PC:next instruction
LEDInfo:xxxxxxxx
IR:   4823443
R1:13, EX_WR:06, EX_RegWrite:1, ReadR1:1, EX Conflict R1: 0
R2:04, EX_WR:06, EX_RegWrite:1, ReadR2:0, EX Conflict R2: 0
R1:13, MEM_WR:05, MEM_RegWrite:1, ReadR1:1, MEM Conflict R1: 0
R2:04, MEM_WR:05, MEM_RegWrite:1, ReadR2:0, MEM Conflict R2: 0
RDin: from ALU
WE:1, WR:08, RDin:0000000x
PC:next instruction
LEDInfo:xxxxxxxx
IR:   9038259
R1:13, EX_WR:13, EX_RegWrite:1, ReadR1:1, EX Conflict R1: 1
R2:08, EX_WR:13, EX_RegWrite:1, ReadR2:0, EX Conflict R2: 0
R1:13, MEM_WR:06, MEM_RegWrite:1, ReadR1:1, MEM Conflict R1: 0
R2:08, MEM_WR:06, MEM_RegWrite:1, ReadR2:0, MEM Conflict R2: 0
RDin: from ALU
WE:1, WR:05, RDin:00000008
PC:next instruction
LEDInfo:xxxxxxxx
IR:  19924275
R1:00, EX_WR:13, EX_RegWrite:1, ReadR1:1, EX Conflict R1: 1
R2:13, EX_WR:13, EX_RegWrite:1, ReadR2:1, EX Conflict R2: 0
R1:00, MEM_WR:13, MEM_RegWrite:1, ReadR1:1, MEM Conflict R1: 0
R2:13, MEM_WR:13, MEM_RegWrite:1, ReadR2:1, MEM Conflict R2: 1
RDin: from ALU
WE:1, WR:06, RDin:00000001
PC:next instruction
LEDInfo:xxxxxxxx
IR:  35653779
R1:00, EX_WR:0a, EX_RegWrite:1, ReadR1:1, EX Conflict R1: 0
R2:02, EX_WR:0a, EX_RegWrite:1, ReadR2:1, EX Conflict R2: 0
R1:00, MEM_WR:13, MEM_RegWrite:1, ReadR1:1, MEM Conflict R1: 0
R2:02, MEM_WR:13, MEM_RegWrite:1, ReadR2:1, MEM Conflict R2: 1
RDin: from ALU
WE:1, WR:13, RDin:00000000
PC:next instruction
LEDInfo:xxxxxxxx
IR:       115
R1:00, EX_WR:11, EX_RegWrite:1, ReadR1:1, EX Conflict R1: 0
R2:00, EX_WR:11, EX_RegWrite:1, ReadR2:0, EX Conflict R2: 0
R1:00, MEM_WR:0a, MEM_RegWrite:1, ReadR1:1, MEM Conflict R1: 0
R2:00, MEM_WR:0a, MEM_RegWrite:1, ReadR2:0, MEM Conflict R2: 0
RDin: from ALU
Controler in ecall:
EX Conflict:(0,0), EX Load:0
MEM Conflict:(0,0), MEM Load:0
Controler in ecall:
EX Conflict:(1,0), EX Load:0
MEM Conflict:(0,1), MEM Load:0
WE:1, WR:13, RDin:0000xxxx
PC:next instruction
LEDInfo:xxxxxxxx
IR:1080197811
R1:11, EX_WR:00, EX_RegWrite:0, ReadR1:1, EX Conflict R1: 0
R2:0a, EX_WR:00, EX_RegWrite:0, ReadR2:1, EX Conflict R2: 0
R1:11, MEM_WR:11, MEM_RegWrite:1, ReadR1:1, MEM Conflict R1: 1
R2:0a, MEM_WR:11, MEM_RegWrite:1, ReadR2:1, MEM Conflict R2: 0
RDin: from ALU
WE:1, WR:0a, RDin:xxxxxxxx
PC:next instruction
LEDInfo:xxxxxxxx
IR:4261582051
R1:05, EX_WR:05, EX_RegWrite:1, ReadR1:1, EX Conflict R1: 1
R2:00, EX_WR:05, EX_RegWrite:1, ReadR2:1, EX Conflict R2: 0
R1:05, MEM_WR:00, MEM_RegWrite:0, ReadR1:1, MEM Conflict R1: 0
R2:00, MEM_WR:00, MEM_RegWrite:0, ReadR2:1, MEM Conflict R2: 0
RDin: from ALU
WE:1, WR:11, RDin:00000022
PC:next instruction
LEDInfo:xxxxxxxx
IR:   1311763
R1:08, EX_WR:09, EX_RegWrite:0, ReadR1:1, EX Conflict R1: 0
R2:01, EX_WR:09, EX_RegWrite:0, ReadR2:1, EX Conflict R2: 0
R1:08, MEM_WR:05, MEM_RegWrite:1, ReadR1:1, MEM Conflict R1: 0
R2:01, MEM_WR:05, MEM_RegWrite:1, ReadR2:1, MEM Conflict R2: 0
RDin: from ALU
WE:0, WR:00, RDin:000XxxxX
PC:next instruction
LEDInfo:xxxxxxxx
IR:  15732627
R1:00, EX_WR:08, EX_RegWrite:1, ReadR1:1, EX Conflict R1: 0
R2:0f, EX_WR:08, EX_RegWrite:1, ReadR2:0, EX Conflict R2: 0
R1:00, MEM_WR:09, MEM_RegWrite:0, ReadR1:1, MEM Conflict R1: 0
R2:0f, MEM_WR:09, MEM_RegWrite:0, ReadR2:0, MEM Conflict R2: 0
RDin: from ALU
WE:1, WR:05, RDin:00000007
PC:next instruction
LEDInfo:xxxxxxxx
IR:  32797747
R1:08, EX_WR:1f, EX_RegWrite:1, ReadR1:1, EX Conflict R1: 0
R2:1f, EX_WR:1f, EX_RegWrite:1, ReadR2:0, EX Conflict R2: 1
R1:08, MEM_WR:08, MEM_RegWrite:1, ReadR1:1, MEM Conflict R1: 1
R2:1f, MEM_WR:08, MEM_RegWrite:1, ReadR2:0, MEM Conflict R2: 0
RDin: from ALU
WE:0, WR:09, RDin:0000xxxx
PC:next instruction
LEDInfo:xxxxxxxx
IR:  29627411
R1:08, EX_WR:08, EX_RegWrite:1, ReadR1:1, EX Conflict R1: 1
R2:1c, EX_WR:08, EX_RegWrite:1, ReadR2:1, EX Conflict R2: 0
R1:08, MEM_WR:1f, MEM_RegWrite:1, ReadR1:1, MEM Conflict R1: 0
R2:1c, MEM_WR:1f, MEM_RegWrite:1, ReadR2:1, MEM Conflict R2: 0
RDin: from ALU
WE:1, WR:08, RDin:xxxxxxxx
PC:next instruction
LEDInfo:xxxxxxxx
IR:   8389267
R1:00, EX_WR:08, EX_RegWrite:1, ReadR1:1, EX Conflict R1: 1
R2:08, EX_WR:08, EX_RegWrite:1, ReadR2:0, EX Conflict R2: 0
R1:00, MEM_WR:08, MEM_RegWrite:1, ReadR1:1, MEM Conflict R1: 0
R2:08, MEM_WR:08, ME